<?xml version="1.0" encoding="UTF-8" standalone="no"?>
<!-- Created with Inkscape (http://www.inkscape.org/) -->

<svg
   xmlns:dc="http://purl.org/dc/elements/1.1/"
   xmlns:cc="http://creativecommons.org/ns#"
   xmlns:rdf="http://www.w3.org/1999/02/22-rdf-syntax-ns#"
   xmlns:svg="http://www.w3.org/2000/svg"
   xmlns="http://www.w3.org/2000/svg"
   xmlns:sodipodi="http://sodipodi.sourceforge.net/DTD/sodipodi-0.dtd"
   xmlns:inkscape="http://www.inkscape.org/namespaces/inkscape"
   width="9.2405901mm"
   height="16.637543mm"
   viewBox="0 0 9.2405898 16.637544"
   version="1.1"
   id="svg1412"
   inkscape:version="0.92.5 (2060ec1f9f, 2020-04-08)"
   sodipodi:docname="B_04_2.svg">
  <defs
     id="defs1406" />
  <sodipodi:namedview
     id="base"
     pagecolor="#ffffff"
     bordercolor="#666666"
     borderopacity="1.0"
     inkscape:pageopacity="0.0"
     inkscape:pageshadow="2"
     inkscape:zoom="3.959798"
     inkscape:cx="-103.82796"
     inkscape:cy="-62.207836"
     inkscape:document-units="mm"
     inkscape:current-layer="layer1"
     showgrid="false"
     fit-margin-top="0"
     fit-margin-left="0"
     fit-margin-right="0"
     fit-margin-bottom="0"
     inkscape:window-width="1916"
     inkscape:window-height="1041"
     inkscape:window-x="0"
     inkscape:window-y="18"
     inkscape:window-maximized="0" />
  <metadata
     id="metadata1409">
    <rdf:RDF>
      <cc:Work
         rdf:about="">
        <dc:format>image/svg+xml</dc:format>
        <dc:type
           rdf:resource="http://purl.org/dc/dcmitype/StillImage" />
        <dc:title></dc:title>
      </cc:Work>
    </rdf:RDF>
  </metadata>
  <g
     inkscape:label="Calque 1"
     inkscape:groupmode="layer"
     id="layer1"
     transform="translate(-66.594755,-66.940989)">
    <path
       style="fill:#000000;stroke-width:0.26458332"
       d="m 69.495295,66.940989 c -0.133898,2.64e-4 -0.175601,0.09077 -0.269751,0.326078 -0.170858,0.427019 -0.17856,0.686347 -0.01809,0.624768 0.156519,-0.06006 0.20962,0.0399 0.238746,0.450617 0.01519,0.214265 0.06027,0.326758 0.121439,0.303343 0.140008,-0.05362 0.241171,0.150137 0.113688,0.228925 -0.177448,0.10967 -0.02988,0.481536 0.215491,0.543118 0.118964,0.02984 0.248172,0.03452 0.287321,0.01035 0.286779,-0.177241 0.404756,1.24587 0.414445,5.005382 0.008,3.11454 0.02515,2.99207 -0.42168,2.99207 -0.325355,0 -0.934475,0.45193 -1.519287,1.12757 -0.332194,0.3838 -0.571146,0.73293 -0.54622,0.79789 0.02437,0.0635 0.009,0.0933 -0.03411,0.0667 -0.182332,-0.11268 -1.010113,1.388 -1.3224,2.39727 -0.203675,0.65825 -0.214656,1.44896 -0.02377,1.67897 0.118079,0.14228 0.295938,0.0949 0.253731,-0.0677 -0.322654,-1.24271 0.505376,-3.25681 1.990059,-4.84054 0.722504,-0.7707 1.399984,-1.08105 1.803508,-0.82578 0.105473,0.0667 0.106773,0.10909 0.0072,0.29507 -0.06389,0.11937 -0.08555,0.2456 -0.04806,0.28061 0.03749,0.035 0.08814,0.007 0.112655,-0.0625 0.09516,-0.26933 0.512221,-0.59377 0.763778,-0.59377 0.385463,0 1.061882,0.35251 1.560111,0.81288 0.700302,0.64716 2.435596,2.79801 2.588988,3.2091 0.08451,0.22648 0.08895,0.20795 0.04393,-0.1695 -0.03425,-0.28717 -0.13522,-0.53709 -0.314708,-0.7772 -1.007536,-1.34789 -1.350635,-1.76222 -2.00143,-2.41899 -0.403759,-0.40746 -0.773976,-0.74104 -0.822688,-0.74104 -0.04871,0 -0.197347,-0.0565 -0.330729,-0.12609 -0.133382,-0.0696 -0.44717,-0.12687 -0.697115,-0.12712 l -0.454236,-5.3e-4 0.05736,-0.61392 c 0.03162,-0.3376 0.05375,-1.2042 0.04909,-1.92597 -0.01518,-2.354216 0.0038,-3.166759 0.0863,-3.713473 0.09888,-0.654894 0.05532,-0.941779 -0.170532,-1.126546 -0.195233,-0.159721 -0.230128,-0.538239 -0.05581,-0.605131 0.06377,-0.02447 0.235076,0.02813 0.380856,0.11679 0.14578,0.08865 0.267078,0.15203 0.269751,0.141076 0.0027,-0.01095 0.02049,-0.166397 0.03927,-0.345716 0.01879,-0.179321 0.07298,-0.3728 0.120406,-0.429947 0.126672,-0.152633 0.25994,-1.220367 0.1788,-1.43247 -0.03835,-0.100254 -0.149411,-0.254183 -0.247013,-0.342099 -0.149605,-0.13476 -0.1988,-0.142541 -0.312642,-0.04806 -0.111572,0.09264 -0.147221,0.09259 -0.204123,5.29e-4 -0.05685,-0.09198 -0.165798,-0.09216 -0.624251,-0.0011 -0.433807,0.08622 -0.627764,0.08897 -0.886767,0.01138 -0.177612,-0.05321 -0.291215,-0.08547 -0.371554,-0.08527 z m 2.007113,1.619022 c 0.06491,0.0081 0.126607,0.108255 0.126607,0.234612 0,0.09038 -0.03328,0.16433 -0.07441,0.16433 -0.08699,0 -0.182678,-0.307729 -0.116272,-0.374137 0.02007,-0.02008 0.04244,-0.02752 0.06408,-0.02479 z"
       id="path4483"
       inkscape:connector-curvature="0" />
  </g>
</svg>
