<?xml version="1.0" encoding="UTF-8" standalone="no"?>
<!-- Created with Inkscape (http://www.inkscape.org/) -->

<svg
   xmlns:dc="http://purl.org/dc/elements/1.1/"
   xmlns:cc="http://creativecommons.org/ns#"
   xmlns:rdf="http://www.w3.org/1999/02/22-rdf-syntax-ns#"
   xmlns:svg="http://www.w3.org/2000/svg"
   xmlns="http://www.w3.org/2000/svg"
   xmlns:sodipodi="http://sodipodi.sourceforge.net/DTD/sodipodi-0.dtd"
   xmlns:inkscape="http://www.inkscape.org/namespaces/inkscape"
   width="8.5289021mm"
   height="13.296542mm"
   viewBox="0 0 8.5289021 13.296542"
   version="1.1"
   id="svg1412"
   inkscape:version="0.92.5 (2060ec1f9f, 2020-04-08)"
   sodipodi:docname="B_06.svg">
  <defs
     id="defs1406" />
  <sodipodi:namedview
     id="base"
     pagecolor="#ffffff"
     bordercolor="#666666"
     borderopacity="1.0"
     inkscape:pageopacity="0.0"
     inkscape:pageshadow="2"
     inkscape:zoom="3.959798"
     inkscape:cx="12.761477"
     inkscape:cy="-40.955804"
     inkscape:document-units="mm"
     inkscape:current-layer="layer1"
     showgrid="false"
     fit-margin-top="0"
     fit-margin-left="0"
     fit-margin-right="0"
     fit-margin-bottom="0"
     inkscape:window-width="1916"
     inkscape:window-height="1041"
     inkscape:window-x="0"
     inkscape:window-y="18"
     inkscape:window-maximized="0" />
  <metadata
     id="metadata1409">
    <rdf:RDF>
      <cc:Work
         rdf:about="">
        <dc:format>image/svg+xml</dc:format>
        <dc:type
           rdf:resource="http://purl.org/dc/dcmitype/StillImage" />
        <dc:title></dc:title>
      </cc:Work>
    </rdf:RDF>
  </metadata>
  <g
     inkscape:label="Calque 1"
     inkscape:groupmode="layer"
     id="layer1"
     transform="translate(-41.092525,-89.2684)">
    <path
       style="fill:#000000;stroke-width:0.26458332"
       d="m 49.376445,102.48791 c -0.0392,-0.0607 -0.0953,-0.51036 -0.1248,-0.9993 -0.0466,-0.77384 -0.11472,-1.0715 -0.5257,-2.297788 -0.50461,-1.505619 -0.73865,-1.933996 -1.38903,-2.542347 -0.64754,-0.605692 -1.38259,-0.73832 -1.7629,-0.318082 -0.10814,0.119502 -0.21715,0.157147 -0.3549,0.122574 -0.1875,-0.04706 -1.03552,0.324395 -1.10681,0.484809 -0.0155,0.03493 -0.0621,0.0635 -0.1036,0.0635 -0.0414,0 -0.34938,0.13335 -0.68427,0.296333 -0.3349,0.162984 -0.65023,0.296566 -0.70074,0.296855 -0.0505,2.54e-4 -0.1922,0.05289 -0.31486,0.11689 -0.31531,0.164518 -0.50193,0.03765 -0.28966,-0.196911 0.0869,-0.09597 0.2187,-0.175056 0.29297,-0.175733 0.21258,-0.0019 0.88323,-0.253426 1.03106,-0.386641 0.0737,-0.06642 0.30948,-0.180549 0.52393,-0.253617 0.21444,-0.07307 0.43502,-0.187227 0.49018,-0.253682 0.0552,-0.06646 0.15276,-0.120827 0.21691,-0.120827 0.0642,0 0.11663,-0.02989 0.11663,-0.06641 0,-0.03653 0.1143,-0.13393 0.254,-0.216453 0.24291,-0.143489 0.254,-0.175371 0.254,-0.730155 0,-0.79471 -0.24503,-2.647188 -0.36653,-2.771 -0.0954,-0.09717 -0.23422,-0.0841 -1.13976,0.107318 -0.10668,0.02254 -0.17229,0.07607 -0.1458,0.118935 0.0487,0.07884 -0.23807,0.273495 -0.4561,0.309565 -0.0652,0.0108 -0.14139,0.0516 -0.16933,0.09069 -0.0698,0.09762 -0.4945,0.363509 -0.58066,0.363509 -0.0386,0 -0.10659,-0.123825 -0.15114,-0.275167 -0.0797,-0.27087 -0.0889,-0.275167 -0.58901,-0.275167 -0.48542,0 -0.508,-0.0094 -0.508,-0.211666 0,-0.153689 0.0726,-0.246454 0.26517,-0.338667 0.1627,-0.07793 0.32629,-0.257866 0.42333,-0.465667 0.19954,-0.427259 0.40398,-0.478401 0.52497,-0.131323 0.10683,0.306433 0.16784,0.312748 0.7762,0.08034 0.25611,-0.09784 0.68876,-0.209801 0.96144,-0.248793 0.27268,-0.03899 0.51127,-0.08638 0.53019,-0.105304 0.0189,-0.01892 -0.0458,-0.215802 -0.14388,-0.437497 -0.17155,-0.387815 -0.18842,-0.400634 -0.44553,-0.338526 -0.90253,0.218019 -1.25305,-0.222586 -0.38418,-0.482907 0.2936,-0.08796 0.32862,-0.127616 0.32862,-0.372009 0,-0.150456 0.0703,-0.360321 0.15614,-0.466371 l 0.15613,-0.192818 0.0936,0.268592 c 0.11097,0.31832 0.43158,0.469125 0.87448,0.411321 0.16869,-0.02201 0.35375,-0.01095 0.41123,0.02455 0.16275,0.100584 0.0215,0.401076 -0.2166,0.460838 -0.28097,0.07052 -0.32632,0.219953 -0.17598,0.579781 0.0881,0.21082 0.0979,0.323625 0.0338,0.387739 -0.0641,0.06411 -0.0232,0.115964 0.14055,0.178229 0.30872,0.117372 0.41996,0.111723 0.99894,-0.05073 l 0.49378,-0.138544 -0.0535,-0.403418 c -0.0494,-0.372475 -0.036,-0.414909 0.17517,-0.55326 0.2721,-0.178284 0.38016,-0.0774 0.38228,0.356876 0.002,0.393014 0.17195,0.406297 0.95476,0.07457 0.23424,-0.09927 0.0925,0.183293 -0.33876,0.675325 -0.33727,0.384792 -0.36649,0.453099 -0.32103,0.750295 0.0837,0.547045 -0.2683,0.778095 -0.46435,0.304803 -0.1184,-0.285859 -0.36928,-0.458444 -0.56,-0.385255 -0.0801,0.03074 -0.10308,0.01275 -0.0642,-0.0502 0.0422,-0.06826 0.0113,-0.07879 -0.10143,-0.03463 -0.0891,0.0349 -0.30404,0.07406 -0.47756,0.08703 -0.455,0.03401 -0.58872,0.173987 -0.52176,0.546185 0.0302,0.168174 0.0813,0.343873 0.11338,0.39044 0.13351,0.193627 0.27767,0.805471 0.23144,0.98225 -0.0326,0.124793 -9.5e-4,0.226057 0.092,0.294037 0.11735,0.08581 0.12467,0.138001 0.0425,0.302701 -0.0618,0.123791 -0.0764,0.32702 -0.0386,0.537679 0.0603,0.336097 0.0642,0.339087 0.51552,0.394343 1.01482,0.124235 1.7567,1.061304 2.40254,3.034657 0.22099,0.675216 0.40129,1.296844 0.40067,1.381396 -5.9e-4,0.0846 0.0377,0.2264 0.0853,0.31522 0.094,0.17559 0.27199,0.97712 0.26253,1.18205 -0.0199,0.43081 -0.0179,0.74327 0.005,0.84064 0.0364,0.15268 -0.15238,0.21072 -0.24071,0.074 z"
       id="path4233"
       inkscape:connector-curvature="0"
       inkscape:export-xdpi="144"
       inkscape:export-ydpi="144" />
  </g>
</svg>
