<?xml version="1.0" encoding="UTF-8" standalone="no"?>
<!-- Created with Inkscape (http://www.inkscape.org/) -->

<svg
   xmlns:dc="http://purl.org/dc/elements/1.1/"
   xmlns:cc="http://creativecommons.org/ns#"
   xmlns:rdf="http://www.w3.org/1999/02/22-rdf-syntax-ns#"
   xmlns:svg="http://www.w3.org/2000/svg"
   xmlns="http://www.w3.org/2000/svg"
   xmlns:sodipodi="http://sodipodi.sourceforge.net/DTD/sodipodi-0.dtd"
   xmlns:inkscape="http://www.inkscape.org/namespaces/inkscape"
   version="1.1"
   id="svg888"
   width="30.600729"
   height="7.7219896"
   viewBox="0 0 30.600729 7.7219893"
   sodipodi:docname="Brest.svg"
   inkscape:version="0.92.5 (2060ec1f9f, 2020-04-08)">
  <metadata
     id="metadata894">
    <rdf:RDF>
      <cc:Work
         rdf:about="">
        <dc:format>image/svg+xml</dc:format>
        <dc:type
           rdf:resource="http://purl.org/dc/dcmitype/StillImage" />
        <dc:title></dc:title>
      </cc:Work>
    </rdf:RDF>
  </metadata>
  <defs
     id="defs892" />
  <sodipodi:namedview
     pagecolor="#ffffff"
     bordercolor="#666666"
     borderopacity="1"
     objecttolerance="10"
     gridtolerance="10"
     guidetolerance="10"
     inkscape:pageopacity="0"
     inkscape:pageshadow="2"
     inkscape:window-width="1916"
     inkscape:window-height="1041"
     id="namedview890"
     showgrid="false"
     inkscape:zoom="30.163597"
     inkscape:cx="15.04596"
     inkscape:cy="2.8465501"
     inkscape:window-x="0"
     inkscape:window-y="18"
     inkscape:window-maximized="0"
     inkscape:current-layer="svg888" />
  <path
     style="fill:#000000;stroke-width:1"
     d="m 1.0968221,0.00128653 c -0.55607091,0.0116656 -0.89648441,0.1035893 -0.89648441,0.2558594 10e-8,0.1856432 0.2164688,0.3378906 0.4804688,0.3378906 0.38847101,0 0.48046881,0.51189037 0.48046881,2.68164057 -1e-7,2.4181171 -0.071295,2.7286361 -0.72070321,3.1816406 -0.6975237,0.486568 -0.6709381,0.5032708 0.84375001,0.5195313 l 1.5625,0.017578 L 2.6554159,5.5969896 C 2.5499897,4.8278258 2.5564036,4.1061582 2.6690877,3.993474 2.781772,3.8807899 2.9167488,3.1553429 2.9679159,2.3821459 3.0190829,1.6089487 3.099905,0.78316343 3.1495565,0.54620833 3.2131024,0.24294503 2.7898117,0.08556653 1.719869,0.01691153 1.4912984,0.00224493 1.2821791,-0.00260207 1.0968221,0.00128653 Z m 3.5117188,0.2792968 C 4.1441682,0.27646183 4.1067638,0.40806243 4.376119,1.1165209 4.552245,1.5797673 4.6062583,2.2453111 4.4952596,2.5950365 4.3842609,2.9447623 4.476215,3.5727435 4.7003377,3.9915209 5.0059547,4.562572 5.0244365,5.0298448 4.7706503,5.8567552 4.5845388,6.4631661 4.5029437,7.0285018 4.5890096,7.1145677 4.8901373,7.4156954 6.213469,6.5977672 6.5226034,5.9192552 6.8961601,5.0993444 6.5351703,3.9686619 5.7628377,3.5364427 5.2523697,3.2507707 5.2482663,3.1818733 5.7140096,2.7161302 6.5882192,1.8419203 5.8847876,0.29191143 4.6085409,0.28058333 Z M 8.8917435,1.7337083 c -0.105648,-0.00372 -0.215501,0.00766 -0.3281245,0.037109 -0.5275098,0.1379468 -0.5615249,0.2806269 -0.2597656,1.0800782 0.2501703,0.6627485 0.2508583,1.3933924 0,2.6113281 C 8.0466186,6.7111254 8.0496917,7.2164214 8.3175254,7.3899579 9.3210226,8.040151 10.244153,7.3396189 10.05776,6.0696455 9.8494596,4.6504 10.82427,4.7249312 11.391744,6.1712079 11.866031,7.3799823 12.846509,7.8355844 13.520651,7.1614423 13.760052,6.9220411 13.848344,6.6785701 13.717915,6.6204271 13.587487,6.5622844 13.251033,6.1594149 12.969869,5.7258959 12.491955,4.9890145 12.500418,4.9045174 13.094869,4.4231615 13.707445,3.9271241 13.709987,3.8775868 13.169087,3.0520677 12.418026,1.9058049 11.307187,1.8686854 11.590962,2.9993333 11.842136,4.0000934 11.266433,4.7439358 10.413228,4.5208177 9.8979445,4.3860679 9.8077385,4.1745922 9.9620565,3.4719896 10.164241,2.5514451 9.6312835,1.7597833 8.8917435,1.7337083 Z M 23.737447,2.0501146 c -0.364739,-0.032731 -0.970832,0.077822 -2.017578,0.3144531 -0.864856,0.1955123 -0.9926,1.5033108 -0.208985,2.1367188 2.195496,1.7746518 2.553699,2.4941406 1.242188,2.4941406 -0.567339,0 -0.897741,-0.239004 -1.111329,-0.8007812 -0.425431,-1.118969 -0.640624,-0.9973166 -0.640624,0.3632812 v 1.1640625 l 1.466796,-0.2011719 c 0.806595,-0.1105565 1.598361,-0.2830595 1.759766,-0.3828125 0.622496,-0.3847241 0.24637,-1.5529165 -0.826172,-2.5644531 -0.616,-0.5809626 -1.121094,-1.2014743 -1.121094,-1.3789062 0,-0.6611094 0.621388,-0.6730164 1.226563,-0.023438 0.689721,0.740329 1.080083,0.4639596 0.808594,-0.5742187 -0.08852,-0.3385071 -0.213387,-0.514144 -0.578125,-0.5468746 z m 4.453125,0.1445313 c -1.893004,-10e-8 -2.450403,0.1080351 -2.601563,0.5019531 -0.290209,0.7562701 0.389775,1.2938836 0.998047,0.7890625 0.420442,-0.348936 0.498459,-0.2971016 0.527344,0.3496094 0.06652,1.4893039 -0.09686,2.6821041 -0.382813,2.7871093 -0.159762,0.058667 -0.291015,0.2371043 -0.291015,0.3984375 0,0.1613334 0.541171,0.2945254 1.201171,0.2949219 h 1.199219 L 28.735493,5.0755052 c -0.08582,-1.8096122 -0.01597,-2.2402343 0.365235,-2.2402343 0.259612,-10e-8 0.558476,0.2248447 0.664062,0.5 0.248957,0.6487702 0.835938,0.2837525 0.835938,-0.5195313 0,-0.5598396 -0.237873,-0.6210937 -2.410156,-0.6210937 z m -11.783203,0.021484 c -2.112635,0.017559 -2.470463,0.087612 -1.886719,0.3691407 0.396,0.1909833 0.734123,0.6484734 0.751953,1.0175781 0.07229,1.4963766 -0.109122,2.9350178 -0.419922,3.3125 -0.251052,0.304914 -0.09369,0.4003906 0.667969,0.4003906 0.925322,0 1,-0.08184 1,-1.1015625 0,-0.6056131 0.144312,-1.190054 0.320312,-1.2988281 0.176,-0.1087741 0.320313,0.01725 0.320313,0.28125 0,0.264 0.144312,0.5689603 0.320312,0.6777343 0.190662,0.1178355 0.31836,-0.265895 0.31836,-0.9511718 0,-1.0780013 -0.04217,-1.1285753 -0.6875,-0.7832032 -0.594466,0.3181489 -0.660506,0.2953399 -0.480469,-0.1738281 0.114691,-0.2988691 0.208984,-0.6762855 0.208984,-0.8378906 0,-0.5235463 0.709374,-0.3101857 1.322266,0.3964844 0.328644,0.3789296 0.597656,0.5140976 0.597656,0.3007812 0,-0.2133168 0.144313,-0.3001803 0.320313,-0.1914062 0.361027,0.2231264 0.41448,-0.17922 0.125,-0.9335938 -0.156122,-0.4068482 -0.704381,-0.501783 -2.798828,-0.484375 z m 2.845703,3.1777344 c -0.50344,0 -2.106036,1.8002145 -1.839844,2.0664063 0.11231,0.1123294 0.56358,0.161455 1.003906,0.109375 0.616379,-0.072903 0.849296,-0.3340668 1.011719,-1.1347657 0.145234,-0.7159616 0.09042,-1.0410156 -0.175781,-1.0410156 z"
     id="path912"
     inkscape:connector-curvature="0" />
</svg>
