<?xml version="1.0" encoding="UTF-8" standalone="no"?>
<!-- Created with Inkscape (http://www.inkscape.org/) -->

<svg
   xmlns:dc="http://purl.org/dc/elements/1.1/"
   xmlns:cc="http://creativecommons.org/ns#"
   xmlns:rdf="http://www.w3.org/1999/02/22-rdf-syntax-ns#"
   xmlns:svg="http://www.w3.org/2000/svg"
   xmlns="http://www.w3.org/2000/svg"
   xmlns:sodipodi="http://sodipodi.sourceforge.net/DTD/sodipodi-0.dtd"
   xmlns:inkscape="http://www.inkscape.org/namespaces/inkscape"
   version="1.1"
   id="svg869"
   width="47.579792"
   height="17.772278"
   viewBox="0 0 47.579792 17.772278"
   sodipodi:docname="Guernesey.svg"
   inkscape:version="0.92.5 (2060ec1f9f, 2020-04-08)">
  <metadata
     id="metadata875">
    <rdf:RDF>
      <cc:Work
         rdf:about="">
        <dc:format>image/svg+xml</dc:format>
        <dc:type
           rdf:resource="http://purl.org/dc/dcmitype/StillImage" />
        <dc:title></dc:title>
      </cc:Work>
    </rdf:RDF>
  </metadata>
  <defs
     id="defs873" />
  <sodipodi:namedview
     pagecolor="#ffffff"
     bordercolor="#666666"
     borderopacity="1"
     objecttolerance="10"
     gridtolerance="10"
     guidetolerance="10"
     inkscape:pageopacity="0"
     inkscape:pageshadow="2"
     inkscape:window-width="1916"
     inkscape:window-height="1041"
     id="namedview871"
     showgrid="false"
     inkscape:zoom="8.6707046"
     inkscape:cx="44.032445"
     inkscape:cy="33.186918"
     inkscape:window-x="0"
     inkscape:window-y="18"
     inkscape:window-maximized="0"
     inkscape:current-layer="svg869" />
  <path
     style="fill:#000000;stroke-width:1"
     d="m 6.1601562,0.00242767 c -0.6550293,0.04851 -1.6540577,0.816 -2.6660156,2.10546903 -0.7775405,0.990767 -1.5823664,1.9798 -1.7871094,2.197266 C 1.171202,4.8742887 0,7.1234897 0,7.5825057 c 0,0.770441 0.7250818,1.956122 1.4238281,2.330079 0.5688947,0.3044643 0.9464609,0.2833153 1.8769531,-0.105469 0.6408845,-0.267785 1.231458,-0.379176 1.3125,-0.248047 0.2716231,0.439495 -0.367586,2.5447353 -1.0742187,3.5371093 -0.3847005,0.540262 -0.6188363,1.11276 -0.5195313,1.273438 0.3414695,0.55251 1.4610184,-0.04366 2.3496094,-1.251953 0.7358157,-1.000554 0.8853181,-1.52031 0.8613281,-2.996094 C 6.2145087,9.1397657 6.0940576,8.2292977 5.9628906,8.0981307 5.831724,7.9669647 5.0550138,8.1006307 4.2363281,8.3950057 2.4949127,9.0212147 1.9199219,8.7500447 1.9199219,7.2993027 c 0,-0.626422 0.4747746,-1.56233 1.4082031,-2.77539 2.0755798,-2.697371 2.3467436,-2.869834 2.7695312,-1.757813 0.191112,0.502663 0.2553923,1.274378 0.1445313,1.714844 -0.5451947,2.166131 -0.5455498,2.599372 -0.00977,3.191406 0.6823912,0.754036 1.5463642,0.503085 1.2695312,-0.369141 -0.364509,-1.148475 -0.387122,-2.950877 -0.04297,-3.501953 C 7.7937741,3.2651717 7.2867201,0.89946167 6.6875,0.20164667 6.5578435,0.05065667 6.3784993,-0.01374133 6.1601562,0.00242767 Z M 37.904297,4.8012557 c -0.648854,0 -2.557625,1.880107 -2.84375,2.800782 -0.123066,0.396 -0.334815,0.720703 -0.470703,0.720703 -0.135891,0 -0.410849,0.358828 -0.611328,0.798828 -0.317399,0.696619 -0.287712,0.800781 0.228515,0.800781 0.326058,0 1.258096,-0.373078 2.072266,-0.828125 0.814166,-0.455043 1.480469,-0.693415 1.480469,-0.529297 -10e-7,0.631034 1.168326,1.6012753 2.201171,1.8281253 0.864772,0.189936 1.027768,0.150507 0.81836,-0.197265 -0.20361,-0.3381443 -0.160109,-0.3555813 0.199219,-0.08008 0.655365,0.502478 1.852642,0.750656 1.966796,0.408204 0.05302,-0.15906 0.446564,-0.35537 0.873047,-0.4375 0.426483,-0.08213 0.858047,-0.2603623 0.958985,-0.3964853 0.100934,-0.136123 0.457362,-0.464515 0.792968,-0.728515 0.584714,-0.459958 0.599863,-0.425774 0.373047,0.800781 -0.130182,0.7040003 -0.431497,1.7122343 -0.669922,2.2402343 -1.131594,2.505933 -1.520203,3.608107 -1.642578,4.666016 -0.117984,1.019951 -0.05477,1.141753 0.570313,1.095703 0.787136,-0.05799 1.191468,-0.844878 1.572265,-3.066406 0.137968,-0.804894 0.543611,-2.099801 0.902344,-2.878906 0.763043,-1.657208 1.159741,-4.0033043 0.722656,-4.2734383 -0.498259,-0.307941 -3.395185,1.153641 -3.023437,1.525391 0.116291,0.116287 -0.09194,0.210937 -0.462891,0.210937 -0.370944,0 -0.757763,0.134413 -0.859375,0.298828 -0.201044,0.325295 -2.244374,0.09938 -3.111328,-0.34375 -0.296304,-0.15145 -0.584925,-0.670229 -0.640625,-1.154297 -0.09114,-0.792147 -0.212203,-0.872355 -1.208984,-0.791015 -0.609139,0.04971 -1.212508,0.261507 -1.341797,0.470703 -0.12929,0.209202 -0.334778,0.280454 -0.457031,0.158203 -0.122249,-0.122252 0.300724,-0.802561 0.941406,-1.511719 1.307078,-1.446777 1.374889,-1.607422 0.669922,-1.607422 z m -27.4375,2.279297 c -0.07729,-0.0026 -0.167108,0.0044 -0.267578,0.01953 -0.7859089,0.118172 -2.0428399,2.331555 -2.3749999,4.1816403 -0.208165,1.15945 -0.184192,1.201172 0.708984,1.201172 0.508426,0 1.235626,-0.218487 1.6152339,-0.484375 0.43688,-0.306003 0.762145,-0.364882 0.888672,-0.160156 0.320867,0.519174 1.688937,0.375485 3.056641,-0.322266 1.043935,-0.532575 1.265625,-0.563371 1.265625,-0.171875 0,0.261385 0.298263,0.635354 0.662109,0.830078 0.525055,0.281002 0.937674,0.216596 2,-0.310547 1.057087,-0.524543 1.405475,-0.57872 1.658203,-0.259765 0.633257,0.799196 3.041016,-0.161328 3.041016,-1.212891 0,-0.215172 0.2145,-0.5696173 0.476563,-0.7871093 0.262057,-0.217492 0.382787,-0.545264 0.269531,-0.728516 -0.1196,-0.193515 -0.05056,-0.236162 0.164062,-0.103516 0.236731,0.146307 0.330119,0.96869 0.261719,2.2890633 -0.08251,1.592747 -0.0061,2.060547 0.335938,2.060547 0.706531,0 2.130644,-0.846654 2.642578,-1.572266 0.344181,-0.487815 0.81686,-0.667938 1.759765,-0.667968 0.999699,-3.3e-5 1.846668,-0.355875 3.769531,-1.5878913 1.364001,-0.873941 2.480469,-1.742383 2.480469,-1.929688 0,-0.187304 -0.399105,-0.04604 -0.886719,0.314453 -0.487594,0.360496 -1.748375,1.006196 -2.800781,1.435547 -1.628381,0.664332 -1.929534,0.708278 -2.021484,0.291016 -0.05943,-0.269671 0.139973,-0.764373 0.443359,-1.099609 0.505993,-0.559104 0.50955,-0.626256 0.0293,-0.810547 -0.75425,-0.289433 -1.484375,0.07574 -1.484375,0.742187 0,0.315751 -0.358234,0.841969 -0.794922,1.169922 -0.436688,0.327939 -0.700795,0.7572433 -0.58789,0.9550783 0.112908,0.19783 0.08539,0.251525 -0.06055,0.119141 -0.145935,-0.132384 -0.529281,-0.0026 -0.851563,0.289062 -0.558118,0.50509 -0.585994,0.471453 -0.621094,-0.71875 -0.02026,-0.6872793 -0.0118,-1.5005933 0.01953,-1.8085933 0.06217,-0.6112 -0.70556,-0.720607 -2.521485,-0.357422 -0.705732,0.141146 -0.963536,0.34486 -0.841797,0.662109 0.126409,0.329415 0.0082,0.404095 -0.421874,0.267578 -0.423953,-0.134557 -0.889611,0.143397 -1.607422,0.960938 -1.691195,1.9261663 -3.952022,1.7385133 -2.5625,-0.212891 0.999217,-1.403257 0.132678,-1.402179 -1.390625,0.002 -1.472366,1.3571823 -2.89657,1.9320523 -3.273438,1.3222663 -0.124442,-0.201351 0.0039,-0.61892 0.285156,-0.9296883 1.320652,-1.459305 -0.356638,-1.344533 -1.826171,0.1250003 -0.616001,0.616 -1.2679049,1.119141 -1.4492189,1.119141 -0.411833,0 0.03874,-1.6863723 0.7343749,-2.7480473 0.591975,-0.903469 0.619153,-1.355184 0.07813,-1.373047 z M 22.03125,10.061022 c 0.03145,0.0025 0.04883,0.0155 0.04883,0.04102 0,0.372568 -0.92305,1.09662 -1.078125,0.845703 -0.08784,-0.142123 0.118368,-0.431813 0.458984,-0.644532 0.255462,-0.15954 0.475966,-0.249811 0.570313,-0.242187 z"
     id="path891"
     inkscape:connector-curvature="0" />
</svg>
